<svg width="413" height="416" viewBox="0 0 413 416" fill="none" xmlns="http://www.w3.org/2000/svg">
<rect y="0.599854" width="413" height="415" rx="40" fill="#88FF00"/>
<path d="M47.245 44.2599C48.515 44.2599 49.655 44.5149 50.665 45.0249C51.685 45.5249 52.48 46.2199 53.05 47.1099C53.63 47.9899 53.92 48.9849 53.92 50.0949C53.92 51.1949 53.63 52.1849 53.05 53.0649C52.48 53.9449 51.69 54.6399 50.68 55.1499C49.67 55.6499 48.53 55.8999 47.26 55.8999C46.03 55.8999 44.9 55.6499 43.87 55.1499C42.84 54.6399 42.025 53.9449 41.425 53.0649C40.825 52.1749 40.525 51.1849 40.525 50.0949C40.525 48.9949 40.825 47.9999 41.425 47.1099C42.025 46.2199 42.835 45.5249 43.855 45.0249C44.885 44.5149 46.015 44.2599 47.245 44.2599ZM47.245 54.2049C48.055 54.2049 48.82 54.0449 49.54 53.7249C50.26 53.4049 50.84 52.9349 51.28 52.3149C51.72 51.6949 51.94 50.9549 51.94 50.0949C51.94 49.2549 51.715 48.5199 51.265 47.8899C50.825 47.2599 50.24 46.7799 49.51 46.4499C48.78 46.1199 48.01 45.9549 47.2 45.9549C46.32 45.9549 45.52 46.1199 44.8 46.4499C44.09 46.7799 43.53 47.2599 43.12 47.8899C42.71 48.5099 42.505 49.2449 42.505 50.0949C42.505 50.9649 42.72 51.7099 43.15 52.3299C43.59 52.9499 44.17 53.4199 44.89 53.7399C45.61 54.0499 46.395 54.2049 47.245 54.2049ZM54.3713 46.1799V44.4999H66.6863L54.3713 46.1799ZM66.6863 44.4999V46.2249H61.5413V55.5999H59.5913V46.2249H54.3713V44.4999H66.6863ZM71.9083 49.5849L79.3183 55.5999H76.3333L70.2133 50.4549V55.5999H68.2633V44.4999H70.2133V48.7899L76.0483 44.4999H79.0783L71.9083 49.5849ZM87.9529 44.4999C88.8829 44.4999 89.7029 44.6549 90.4129 44.9649C91.1329 45.2749 91.6879 45.7099 92.0779 46.2699C92.4779 46.8199 92.6779 47.4599 92.6779 48.1899V48.2499C92.6779 49.4799 92.3329 50.4149 91.6429 51.0549C90.9529 51.6849 89.9079 51.9999 88.5079 51.9999H82.3279V55.5999H80.3629V44.4999H87.9529ZM87.8479 50.3349C88.4479 50.3349 88.9379 50.2999 89.3179 50.2299C89.7079 50.1599 90.0379 49.9799 90.3079 49.6899C90.5879 49.3899 90.7279 48.9249 90.7279 48.2949C90.7279 47.6349 90.5879 47.1499 90.3079 46.8399C90.0379 46.5199 89.7129 46.3249 89.3329 46.2549C88.9529 46.1849 88.4579 46.1499 87.8479 46.1499H87.2029C86.9129 46.1499 86.4129 46.1549 85.7029 46.1649C85.0029 46.1649 83.8729 46.1649 82.3129 46.1649L82.3279 50.3349H87.8329H87.8479ZM100.521 44.2599C101.791 44.2599 102.931 44.5149 103.941 45.0249C104.961 45.5249 105.756 46.2199 106.326 47.1099C106.906 47.9899 107.196 48.9849 107.196 50.0949C107.196 51.1949 106.906 52.1849 106.326 53.0649C105.756 53.9449 104.966 54.6399 103.956 55.1499C102.946 55.6499 101.806 55.8999 100.536 55.8999C99.3064 55.8999 98.1764 55.6499 97.1464 55.1499C96.1164 54.6399 95.3014 53.9449 94.7014 53.0649C94.1014 52.1749 93.8014 51.1849 93.8014 50.0949C93.8014 48.9949 94.1014 47.9999 94.7014 47.1099C95.3014 46.2199 96.1114 45.5249 97.1314 45.0249C98.1614 44.5149 99.2914 44.2599 100.521 44.2599ZM100.521 54.2049C101.331 54.2049 102.096 54.0449 102.816 53.7249C103.536 53.4049 104.116 52.9349 104.556 52.3149C104.996 51.6949 105.216 50.9549 105.216 50.0949C105.216 49.2549 104.991 48.5199 104.541 47.8899C104.101 47.2599 103.516 46.7799 102.786 46.4499C102.056 46.1199 101.286 45.9549 100.476 45.9549C99.5964 45.9549 98.7964 46.1199 98.0764 46.4499C97.3664 46.7799 96.8064 47.2599 96.3964 47.8899C95.9864 48.5099 95.7814 49.2449 95.7814 50.0949C95.7814 50.9649 95.9964 51.7099 96.4264 52.3299C96.8664 52.9499 97.4464 53.4199 98.1664 53.7399C98.8864 54.0499 99.6714 54.2049 100.521 54.2049ZM114.965 44.7249C113.845 44.7249 112.94 44.4799 112.25 43.9899C111.57 43.4999 111.23 42.7499 111.23 41.7399H112.67C112.66 42.2999 112.855 42.7499 113.255 43.0899C113.665 43.4199 114.215 43.5849 114.905 43.5849C115.605 43.5849 116.165 43.4199 116.585 43.0899C117.005 42.7499 117.215 42.2999 117.215 41.7399H118.655C118.655 42.7299 118.31 43.4749 117.62 43.9749C116.94 44.4749 116.055 44.7249 114.965 44.7249ZM110.57 53.3049L119.42 44.4999H121.37V55.5999H119.42V46.7949L110.57 55.5999H108.62V44.4999H110.57V53.3049ZM122.941 46.1799V44.4999H135.256L122.941 46.1799ZM135.256 44.4999V46.2249H130.111V55.5999H128.161V46.2249H122.941V44.4999H135.256ZM146.673 50.6499H138.783V53.9349L147.933 53.8749V55.5999H136.833V44.4999H147.933L147.948 46.2249H138.783V48.9249H146.673V50.6499ZM166.357 53.7999H167.842V57.0399H165.952V55.6149L156.247 55.5999V57.0399H154.357V53.7999H155.107C156.027 52.4199 156.702 50.9849 157.132 49.4949C157.572 48.0049 157.792 46.3399 157.792 44.4999H166.342L166.357 53.7999ZM159.592 46.1499C159.362 49.0499 158.542 51.5999 157.132 53.7999H164.482V46.1649L159.592 46.1499ZM180.8 44.4999V55.5999H178.85V46.2249H173.57C173.37 47.6549 173.135 48.9449 172.865 50.0949C172.605 51.2449 172.245 52.3549 171.785 53.4249C171.475 54.0549 171.075 54.5599 170.585 54.9399C170.095 55.3099 169.545 55.5299 168.935 55.5999V53.6499C169.505 53.6499 169.97 53.2099 170.33 52.3299C171.11 50.0099 171.605 47.3999 171.815 44.4999H180.8ZM192.704 50.2749C192.714 49.2049 192.714 48.7499 192.704 48.9099V50.2749ZM194.474 55.5699H192.509V51.9849H187.694L184.619 55.5699H182.069L185.294 51.8199C184.314 51.6099 183.544 51.1949 182.984 50.5749C182.434 49.9549 182.159 49.1699 182.159 48.2199V48.1599C182.159 47.4299 182.354 46.7899 182.744 46.2399C183.144 45.6799 183.699 45.2449 184.409 44.9349C185.129 44.6249 185.954 44.4699 186.884 44.4699H194.474V55.5699ZM184.154 48.2949C184.154 48.9149 184.284 49.3699 184.544 49.6599C184.804 49.9399 185.124 50.1149 185.504 50.1849C185.884 50.2449 186.399 50.2749 187.049 50.2749H187.079H192.509V46.2549C190.369 46.2549 188.799 46.2349 187.799 46.1949C187.589 46.1849 187.339 46.1799 187.049 46.1799C186.399 46.1799 185.884 46.2149 185.504 46.2849C185.124 46.3549 184.804 46.5449 184.544 46.8549C184.284 47.1549 184.154 47.6349 184.154 48.2949ZM201.22 50.0649C201.22 48.9549 201.515 47.9549 202.105 47.0649C202.705 46.1749 203.52 45.4799 204.55 44.9799C205.58 44.4699 206.725 44.2149 207.985 44.2149C209.495 44.2149 210.82 44.5899 211.96 45.3399C213.11 46.0899 213.94 47.1549 214.45 48.5349L212.41 48.5649C212.2 48.0049 211.845 47.5249 211.345 47.1249C210.845 46.7249 210.29 46.4249 209.68 46.2249C209.08 46.0149 208.52 45.9099 208 45.9099C207.22 45.9099 206.455 46.0749 205.705 46.4049C204.965 46.7249 204.355 47.1999 203.875 47.8299C203.405 48.4599 203.17 49.2049 203.17 50.0649C203.17 50.9449 203.39 51.6949 203.83 52.3149C204.27 52.9349 204.855 53.4049 205.585 53.7249C206.325 54.0449 207.13 54.2049 208 54.2049C208.51 54.2049 209.045 54.1099 209.605 53.9199C210.165 53.7199 210.69 53.4249 211.18 53.0349C211.67 52.6449 212.06 52.1699 212.35 51.6099H214.465C213.905 53.0099 213.06 54.0749 211.93 54.8049C210.81 55.5349 209.495 55.8999 207.985 55.8999C206.735 55.8999 205.59 55.6449 204.55 55.1349C203.52 54.6249 202.705 53.9249 202.105 53.0349C201.515 52.1449 201.22 51.1549 201.22 50.0649ZM225.803 50.6499H217.913V53.9349L227.063 53.8749V55.5999H215.963V44.4999H227.063L227.078 46.2249H217.913V48.9249H225.803V50.6499ZM233.989 48.3999C235.789 48.3999 237.149 48.5399 238.069 48.8199C238.989 49.0999 239.594 49.4799 239.884 49.9599C240.184 50.4399 240.334 51.0599 240.334 51.8199V51.8649C240.334 52.4849 240.219 53.0599 239.989 53.5899C239.759 54.1199 239.209 54.5949 238.339 55.0149C237.479 55.4349 236.184 55.6449 234.454 55.6449H228.649V44.5449H239.614V46.2699H230.599V48.3999H233.989ZM234.979 53.9799C236.179 53.9799 237.044 53.8049 237.574 53.4549C238.114 53.0949 238.384 52.5599 238.384 51.8499C238.384 51.3799 238.269 51.0149 238.039 50.7549C237.819 50.4949 237.464 50.3149 236.974 50.2149C236.494 50.1049 235.829 50.0499 234.979 50.0499H234.964H230.599V53.9499C232.809 53.9499 234.154 53.9599 234.634 53.9799H234.979ZM251.796 50.2749C251.806 49.2049 251.806 48.7499 251.796 48.9099V50.2749ZM253.566 55.5699H251.601V51.9849H246.786L243.711 55.5699H241.161L244.386 51.8199C243.406 51.6099 242.636 51.1949 242.076 50.5749C241.526 49.9549 241.251 49.1699 241.251 48.2199V48.1599C241.251 47.4299 241.446 46.7899 241.836 46.2399C242.236 45.6799 242.791 45.2449 243.501 44.9349C244.221 44.6249 245.046 44.4699 245.976 44.4699H253.566V55.5699ZM243.246 48.2949C243.246 48.9149 243.376 49.3699 243.636 49.6599C243.896 49.9399 244.216 50.1149 244.596 50.1849C244.976 50.2449 245.491 50.2749 246.141 50.2749H246.171H251.601V46.2549C249.461 46.2549 247.891 46.2349 246.891 46.1949C246.681 46.1849 246.431 46.1799 246.141 46.1799C245.491 46.1799 244.976 46.2149 244.596 46.2849C244.216 46.3549 243.896 46.5449 243.636 46.8549C243.376 47.1549 243.246 47.6349 243.246 48.2949ZM42.85 69.7149H50.8V65.4999H52.75V76.5999H50.8V71.5149H42.85V76.5999H40.9V65.4999H42.85V69.7149ZM60.8973 65.2599C62.1673 65.2599 63.3073 65.5149 64.3173 66.0249C65.3373 66.5249 66.1323 67.2199 66.7023 68.1099C67.2823 68.9899 67.5723 69.9849 67.5723 71.0949C67.5723 72.1949 67.2823 73.1849 66.7023 74.0649C66.1323 74.9449 65.3423 75.6399 64.3323 76.1499C63.3223 76.6499 62.1823 76.8999 60.9123 76.8999C59.6823 76.8999 58.5523 76.6499 57.5223 76.1499C56.4923 75.6399 55.6773 74.9449 55.0773 74.0649C54.4773 73.1749 54.1773 72.1849 54.1773 71.0949C54.1773 69.9949 54.4773 68.9999 55.0773 68.1099C55.6773 67.2199 56.4873 66.5249 57.5073 66.0249C58.5373 65.5149 59.6673 65.2599 60.8973 65.2599ZM60.8973 75.2049C61.7073 75.2049 62.4723 75.0449 63.1923 74.7249C63.9123 74.4049 64.4923 73.9349 64.9323 73.3149C65.3723 72.6949 65.5923 71.9549 65.5923 71.0949C65.5923 70.2549 65.3673 69.5199 64.9173 68.8899C64.4773 68.2599 63.8923 67.7799 63.1623 67.4499C62.4323 67.1199 61.6623 66.9549 60.8523 66.9549C59.9723 66.9549 59.1723 67.1199 58.4523 67.4499C57.7423 67.7799 57.1823 68.2599 56.7723 68.8899C56.3623 69.5099 56.1573 70.2449 56.1573 71.0949C56.1573 71.9649 56.3723 72.7099 56.8023 73.3299C57.2423 73.9499 57.8223 74.4199 58.5423 74.7399C59.2623 75.0499 60.0473 75.2049 60.8973 75.2049ZM79.3307 70.7799C80.1707 70.9499 80.8057 71.2449 81.2357 71.6649C81.6657 72.0749 81.8807 72.6649 81.8807 73.4349V73.4949C81.8807 74.4249 81.6607 75.1099 81.2207 75.5499C80.7907 75.9899 80.2107 76.2749 79.4807 76.4049C78.7607 76.5249 77.7507 76.5949 76.4507 76.6149H76.4207H75.7007L68.9957 76.5999V65.4999H77.1407C78.3007 65.5099 79.2257 65.7499 79.9157 66.2199C80.6057 66.6899 80.9507 67.3549 80.9507 68.2149V68.2749C80.9507 68.9249 80.8157 69.4549 80.5457 69.8649C80.2757 70.2749 79.8707 70.5799 79.3307 70.7799ZM79.0307 68.5299C79.0307 68.0699 78.9307 67.7349 78.7307 67.5249C78.5407 67.3149 78.2907 67.1849 77.9807 67.1349C77.6707 67.0849 77.2257 67.0599 76.6457 67.0599H76.6157H70.9307V69.9999C71.3907 70.0099 71.8457 70.0149 72.2957 70.0149C72.7457 70.0149 73.1707 70.0199 73.5707 70.0299C74.5107 70.0299 75.0107 70.0349 75.0707 70.0449H76.6457C77.2557 70.0449 77.7007 70.0249 77.9807 69.9849C78.2707 69.9449 78.5157 69.8199 78.7157 69.6099C78.9257 69.3899 79.0307 69.0299 79.0307 68.5299ZM70.9307 70.1949H70.9607L70.9307 70.1799V70.1949ZM77.1257 74.9949C77.8157 74.9949 78.3307 74.9699 78.6707 74.9199C79.0107 74.8599 79.2807 74.7099 79.4807 74.4699C79.6907 74.2199 79.7957 73.8199 79.7957 73.2699C79.7957 72.7399 79.6907 72.3599 79.4807 72.1299C79.2807 71.8899 79.0107 71.7449 78.6707 71.6949C78.3307 71.6349 77.8157 71.6049 77.1257 71.6049H77.1107H70.9307V74.9649C73.4407 74.9649 75.2557 74.9749 76.3757 74.9949H77.1257ZM95.0534 65.4999L89.4734 74.9199C89.1934 75.4699 88.6584 75.8949 87.8684 76.1949C87.0884 76.4949 86.1934 76.6449 85.1834 76.6449C84.9834 76.6449 84.8284 76.6399 84.7184 76.6299V74.9349C85.8884 74.9349 86.4734 74.7349 86.4734 74.3349C86.4734 74.2149 86.4284 74.0899 86.3384 73.9599L81.8084 65.4999H83.9234L88.1834 73.4649L92.9384 65.4999H95.0534ZM106.387 65.2599C107.657 65.2599 108.797 65.5149 109.807 66.0249C110.827 66.5249 111.622 67.2199 112.192 68.1099C112.772 68.9899 113.062 69.9849 113.062 71.0949C113.062 72.1949 112.772 73.1849 112.192 74.0649C111.622 74.9449 110.832 75.6399 109.822 76.1499C108.812 76.6499 107.672 76.8999 106.402 76.8999C105.252 76.8999 104.187 76.6799 103.207 76.2399C102.227 75.7899 101.427 75.1699 100.807 74.3799C100.187 73.5899 99.8171 72.7049 99.6971 71.7249H97.9721V76.5249H96.0221V65.4249H97.9721V70.0899H99.7571C99.9271 69.1499 100.322 68.3149 100.942 67.5849C101.572 66.8549 102.362 66.2849 103.312 65.8749C104.262 65.4649 105.287 65.2599 106.387 65.2599ZM106.387 75.2049C107.197 75.2049 107.962 75.0449 108.682 74.7249C109.402 74.4049 109.982 73.9349 110.422 73.3149C110.862 72.6949 111.082 71.9549 111.082 71.0949C111.082 70.2549 110.862 69.5249 110.422 68.9049C109.982 68.2749 109.402 67.7949 108.682 67.4649C107.962 67.1249 107.197 66.9549 106.387 66.9549C105.497 66.9549 104.692 67.1199 103.972 67.4499C103.252 67.7799 102.682 68.2599 102.262 68.8899C101.852 69.5099 101.647 70.2449 101.647 71.0949C101.647 71.9649 101.862 72.7099 102.292 73.3299C102.732 73.9499 103.312 74.4199 104.032 74.7399C104.752 75.0499 105.537 75.2049 106.387 75.2049ZM131.961 65.4999V76.5999H129.936V67.2249H121.836V76.5999H119.811V65.4999H131.961ZM141.346 65.4999C142.276 65.4999 143.096 65.6549 143.806 65.9649C144.526 66.2749 145.081 66.7099 145.471 67.2699C145.871 67.8199 146.071 68.4599 146.071 69.1899V69.2499C146.071 70.4799 145.726 71.4149 145.036 72.0549C144.346 72.6849 143.301 72.9999 141.901 72.9999H135.721V76.5999H133.756V65.4999H141.346ZM141.241 71.3349C141.841 71.3349 142.331 71.2999 142.711 71.2299C143.101 71.1599 143.431 70.9799 143.701 70.6899C143.981 70.3899 144.121 69.9249 144.121 69.2949C144.121 68.6349 143.981 68.1499 143.701 67.8399C143.431 67.5199 143.106 67.3249 142.726 67.2549C142.346 67.1849 141.851 67.1499 141.241 67.1499H140.596C140.306 67.1499 139.806 67.1549 139.096 67.1649C138.396 67.1649 137.266 67.1649 135.706 67.1649L135.721 71.3349H141.226H141.241ZM153.915 65.2599C155.185 65.2599 156.325 65.5149 157.335 66.0249C158.355 66.5249 159.15 67.2199 159.72 68.1099C160.3 68.9899 160.59 69.9849 160.59 71.0949C160.59 72.1949 160.3 73.1849 159.72 74.0649C159.15 74.9449 158.36 75.6399 157.35 76.1499C156.34 76.6499 155.2 76.8999 153.93 76.8999C152.7 76.8999 151.57 76.6499 150.54 76.1499C149.51 75.6399 148.695 74.9449 148.095 74.0649C147.495 73.1749 147.195 72.1849 147.195 71.0949C147.195 69.9949 147.495 68.9999 148.095 68.1099C148.695 67.2199 149.505 66.5249 150.525 66.0249C151.555 65.5149 152.685 65.2599 153.915 65.2599ZM153.915 75.2049C154.725 75.2049 155.49 75.0449 156.21 74.7249C156.93 74.4049 157.51 73.9349 157.95 73.3149C158.39 72.6949 158.61 71.9549 158.61 71.0949C158.61 70.2549 158.385 69.5199 157.935 68.8899C157.495 68.2599 156.91 67.7799 156.18 67.4499C155.45 67.1199 154.68 66.9549 153.87 66.9549C152.99 66.9549 152.19 67.1199 151.47 67.4499C150.76 67.7799 150.2 68.2599 149.79 68.8899C149.38 69.5099 149.175 70.2449 149.175 71.0949C149.175 71.9649 149.39 72.7099 149.82 73.3299C150.26 73.9499 150.84 74.4199 151.56 74.7399C152.28 75.0499 153.065 75.2049 153.915 75.2049ZM179.608 71.0649C179.608 71.9049 179.283 72.6699 178.633 73.3599C177.983 74.0399 177.083 74.5799 175.933 74.9799C174.783 75.3699 173.498 75.5649 172.078 75.5649H171.673V76.5999H169.723V75.5649H169.453H169.363H169.348C167.978 75.5649 166.693 75.3649 165.493 74.9649C164.303 74.5649 163.348 74.0249 162.628 73.3449C161.918 72.6549 161.563 71.8949 161.563 71.0649C161.563 70.2249 161.918 69.4649 162.628 68.7849C163.338 68.1049 164.283 67.5649 165.463 67.1649C166.653 66.7649 167.933 66.5599 169.303 66.5499H169.723V65.4999H171.673V66.5499H172.078C173.508 66.5599 174.793 66.7599 175.933 67.1499C177.083 67.5399 177.983 68.0799 178.633 68.7699C179.283 69.4499 179.608 70.2149 179.608 71.0649ZM169.723 73.6899V68.4249H169.528C168.058 68.4249 166.728 68.6249 165.538 69.0249C164.358 69.4249 163.768 70.1049 163.768 71.0649C163.768 71.7149 164.068 72.2399 164.668 72.6399C165.278 73.0299 166.018 73.3049 166.888 73.4649C167.768 73.6149 168.648 73.6899 169.528 73.6899H169.723ZM172.033 73.6899C173.543 73.6899 174.833 73.4949 175.903 73.1049C176.973 72.7049 177.508 72.0249 177.508 71.0649C177.508 70.0949 176.958 69.4149 175.858 69.0249C174.758 68.6249 173.478 68.4249 172.018 68.4249H171.673V73.6899H172.033ZM190.794 71.6499H182.904V74.9349L192.054 74.8749V76.5999H180.954V65.4999H192.054L192.069 67.2249H182.904V69.9249H190.794V71.6499ZM193.339 71.0649C193.339 69.9549 193.634 68.9549 194.224 68.0649C194.824 67.1749 195.639 66.4799 196.669 65.9799C197.699 65.4699 198.844 65.2149 200.104 65.2149C201.614 65.2149 202.939 65.5899 204.079 66.3399C205.229 67.0899 206.059 68.1549 206.569 69.5349L204.529 69.5649C204.319 69.0049 203.964 68.5249 203.464 68.1249C202.964 67.7249 202.409 67.4249 201.799 67.2249C201.199 67.0149 200.639 66.9099 200.119 66.9099C199.339 66.9099 198.574 67.0749 197.824 67.4049C197.084 67.7249 196.474 68.1999 195.994 68.8299C195.524 69.4599 195.289 70.2049 195.289 71.0649C195.289 71.9449 195.509 72.6949 195.949 73.3149C196.389 73.9349 196.974 74.4049 197.704 74.7249C198.444 75.0449 199.249 75.2049 200.119 75.2049C200.629 75.2049 201.164 75.1099 201.724 74.9199C202.284 74.7199 202.809 74.4249 203.299 74.0349C203.789 73.6449 204.179 73.1699 204.469 72.6099H206.584C206.024 74.0099 205.179 75.0749 204.049 75.8049C202.929 76.5349 201.614 76.8999 200.104 76.8999C198.854 76.8999 197.709 76.6449 196.669 76.1349C195.639 75.6249 194.824 74.9249 194.224 74.0349C193.634 73.1449 193.339 72.1549 193.339 71.0649ZM207.783 71.0649C207.783 69.9549 208.078 68.9549 208.668 68.0649C209.268 67.1749 210.083 66.4799 211.113 65.9799C212.143 65.4699 213.288 65.2149 214.548 65.2149C216.058 65.2149 217.383 65.5899 218.523 66.3399C219.673 67.0899 220.503 68.1549 221.013 69.5349L218.973 69.5649C218.763 69.0049 218.408 68.5249 217.908 68.1249C217.408 67.7249 216.853 67.4249 216.243 67.2249C215.643 67.0149 215.083 66.9099 214.563 66.9099C213.783 66.9099 213.018 67.0749 212.268 67.4049C211.528 67.7249 210.918 68.1999 210.438 68.8299C209.968 69.4599 209.733 70.2049 209.733 71.0649C209.733 71.9449 209.953 72.6949 210.393 73.3149C210.833 73.9349 211.418 74.4049 212.148 74.7249C212.888 75.0449 213.693 75.2049 214.563 75.2049C215.073 75.2049 215.608 75.1099 216.168 74.9199C216.728 74.7199 217.253 74.4249 217.743 74.0349C218.233 73.6449 218.623 73.1699 218.913 72.6099H221.028C220.468 74.0099 219.623 75.0749 218.493 75.8049C217.373 76.5349 216.058 76.8999 214.548 76.8999C213.298 76.8999 212.153 76.6449 211.113 76.1349C210.083 75.6249 209.268 74.9249 208.668 74.0349C208.078 73.1449 207.783 72.1549 207.783 71.0649ZM224.476 65.4999V74.3049L233.326 65.4999H235.276V76.5999H233.326V67.7949L224.476 76.5999H222.526V65.4999H224.476ZM247.437 65.2599C248.707 65.2599 249.847 65.5149 250.857 66.0249C251.877 66.5249 252.672 67.2199 253.242 68.1099C253.822 68.9899 254.112 69.9849 254.112 71.0949C254.112 72.1949 253.822 73.1849 253.242 74.0649C252.672 74.9449 251.882 75.6399 250.872 76.1499C249.862 76.6499 248.722 76.8999 247.452 76.8999C246.302 76.8999 245.237 76.6799 244.257 76.2399C243.277 75.7899 242.477 75.1699 241.857 74.3799C241.237 73.5899 240.867 72.7049 240.747 71.7249H239.022V76.5249H237.072V65.4249H239.022V70.0899H240.807C240.977 69.1499 241.372 68.3149 241.992 67.5849C242.622 66.8549 243.412 66.2849 244.362 65.8749C245.312 65.4649 246.337 65.2599 247.437 65.2599ZM247.437 75.2049C248.247 75.2049 249.012 75.0449 249.732 74.7249C250.452 74.4049 251.032 73.9349 251.472 73.3149C251.912 72.6949 252.132 71.9549 252.132 71.0949C252.132 70.2549 251.912 69.5249 251.472 68.9049C251.032 68.2749 250.452 67.7949 249.732 67.4649C249.012 67.1249 248.247 66.9549 247.437 66.9549C246.547 66.9549 245.742 67.1199 245.022 67.4499C244.302 67.7799 243.732 68.2599 243.312 68.8899C242.902 69.5099 242.697 70.2449 242.697 71.0949C242.697 71.9649 242.912 72.7099 243.342 73.3299C243.782 73.9499 244.362 74.4199 245.082 74.7399C245.802 75.0499 246.587 75.2049 247.437 75.2049Z" fill="#252527"/>
<path d="M375 40.5999C375 39.4953 374.105 38.5999 373 38.5999L355 38.5999C353.895 38.5999 353 39.4953 353 40.5999C353 41.7044 353.895 42.5999 355 42.5999L371 42.5999L371 58.5999C371 59.7044 371.895 60.5999 373 60.5999C374.105 60.5999 375 59.7044 375 58.5999L375 40.5999ZM333.414 83.0141L374.414 42.0141L371.586 39.1856L330.586 80.1856L333.414 83.0141Z" fill="#252527"/>
<path d="M68.86 326.25C68.84 329.03 67.58 331.06 65.08 332.34C62.58 333.62 59.32 334.26 55.3 334.26C52.38 334.26 49.86 333.87 47.74 333.09C45.64 332.31 44.04 331.22 42.94 329.82C41.84 328.42 41.29 326.79 41.29 324.93H45.16C45.16 326.99 46.14 328.51 48.1 329.49C50.08 330.45 52.48 330.93 55.3 330.93C57.94 330.95 60.18 330.58 62.02 329.82C63.88 329.06 64.82 327.86 64.84 326.22C64.84 325.58 64.69 325.1 64.39 324.78C64.09 324.44 63.38 324.19 62.26 324.03C61.14 323.85 59.36 323.76 56.92 323.76H51.37V320.34H56.98H58.45C59.69 320.34 60.72 320.29 61.54 320.19C62.36 320.07 63.03 319.81 63.55 319.41C64.09 319.01 64.36 318.41 64.36 317.61C64.36 316.45 63.48 315.58 61.72 315C59.96 314.42 57.82 314.11 55.3 314.07C52.48 314.03 50.08 314.34 48.1 315C46.14 315.64 45.16 316.69 45.16 318.15H41.29C41.29 315.27 42.74 313.32 45.64 312.3C48.56 311.26 51.78 310.74 55.3 310.74C57.44 310.74 59.43 310.88 61.27 311.16C63.13 311.42 64.76 312.04 66.16 313.02C67.56 314 68.26 315.45 68.26 317.37C68.26 319.51 67.48 321.01 65.92 321.87C67.86 322.69 68.84 324.13 68.86 326.19V326.22V326.25ZM81.6086 316.53C84.1286 316.53 86.3886 317.01 88.3886 317.97C90.3886 318.93 91.3886 320.62 91.3886 323.04V333.6H88.0586L87.6386 330.45C87.3586 331.03 86.7686 331.59 85.8686 332.13C84.9886 332.65 83.9186 333.07 82.6586 333.39C81.4186 333.71 80.1386 333.87 78.8186 333.87C77.2786 333.87 75.6086 333.55 73.8086 332.91C72.0086 332.27 71.1086 330.87 71.1086 328.71C71.1086 327.29 71.4986 326.21 72.2786 325.47C73.0586 324.71 73.9086 324.22 74.8286 324C75.7486 323.76 76.5686 323.64 77.2886 323.64C80.7486 323.64 83.1386 323.62 84.4586 323.58C85.7986 323.52 86.6686 323.41 87.0686 323.25C87.4686 323.07 87.6786 322.76 87.6986 322.32V322.05C87.6786 321.55 87.3786 321.09 86.7986 320.67C86.2386 320.23 85.4886 319.88 84.5486 319.62C83.6086 319.36 82.6086 319.23 81.5486 319.23C79.7486 319.19 78.2186 319.44 76.9586 319.98C75.6986 320.52 75.0686 321.39 75.0686 322.59H71.2886C71.2886 321.05 71.8386 319.83 72.9386 318.93C74.0386 318.03 75.3686 317.41 76.9286 317.07C78.4886 316.71 80.0486 316.53 81.6086 316.53ZM80.2586 330.57C83.0586 330.57 84.9886 330 86.0486 328.86C87.1286 327.72 87.6686 326.43 87.6686 324.99C86.6886 325.73 84.6886 326.1 81.6686 326.1C80.0086 326.1 78.7186 326.15 77.7986 326.25C76.8986 326.35 76.2286 326.55 75.7886 326.85C75.3486 327.13 75.1086 327.55 75.0686 328.11C75.1286 328.87 75.5386 329.47 76.2986 329.91C77.0786 330.35 78.3986 330.57 80.2586 330.57ZM113.704 325.8C113.664 327.24 113.324 328.6 112.684 329.88C112.044 331.14 111.124 332.17 109.924 332.97C108.744 333.75 107.354 334.14 105.754 334.14C102.294 334.14 99.6544 333.28 97.8344 331.56V339.3H94.0844V317.25H97.2044L97.6844 319.65C99.5644 317.81 102.254 316.89 105.754 316.89C107.294 316.89 108.654 317.27 109.834 318.03C111.034 318.79 111.974 319.83 112.654 321.15C113.334 322.47 113.684 323.95 113.704 325.59V325.68V325.8ZM103.654 331.5C104.954 331.5 106.054 331.2 106.954 330.6C107.874 329.98 108.564 329.22 109.024 328.32C109.504 327.4 109.754 326.51 109.774 325.65C109.754 324.63 109.524 323.66 109.084 322.74C108.664 321.8 107.994 321.03 107.074 320.43C106.174 319.81 105.034 319.5 103.654 319.5C102.514 319.5 101.504 319.79 100.624 320.37C99.7444 320.93 99.0544 321.67 98.5544 322.59C98.0744 323.49 97.8344 324.44 97.8344 325.44C97.8344 326.54 98.0744 327.55 98.5544 328.47C99.0344 329.39 99.7144 330.13 100.594 330.69C101.494 331.23 102.514 331.5 103.654 331.5ZM136.456 325.65H119.416C119.476 326.67 119.766 327.63 120.286 328.53C120.806 329.41 121.576 330.13 122.596 330.69C123.616 331.25 124.856 331.53 126.316 331.53C127.576 331.53 128.686 331.31 129.646 330.87C130.626 330.41 131.376 329.85 131.896 329.19C132.436 328.51 132.706 327.86 132.706 327.24H136.456C136.456 328.28 136.056 329.34 135.256 330.42C134.456 331.5 133.286 332.4 131.746 333.12C130.206 333.84 128.376 334.2 126.256 334.2C124.356 334.2 122.596 333.83 120.976 333.09C119.356 332.33 118.066 331.28 117.106 329.94C116.146 328.58 115.666 327.04 115.666 325.32C115.666 323.56 116.126 322.01 117.046 320.67C117.986 319.31 119.256 318.27 120.856 317.55C122.476 316.81 124.276 316.44 126.256 316.44C128.276 316.44 130.046 316.8 131.566 317.52C133.106 318.24 134.296 319.26 135.136 320.58C135.996 321.88 136.436 323.41 136.456 325.17V325.65ZM126.316 319.14C124.596 319.14 123.206 319.52 122.146 320.28C121.086 321.04 120.326 322.04 119.866 323.28H132.466C132.126 322.04 131.456 321.04 130.456 320.28C129.476 319.52 128.096 319.14 126.316 319.14ZM152.414 317.25V319.92H142.454V333.6H138.704V317.25H152.414ZM158.508 329.61L171.078 317.25H174.828V333.6H171.078V321.24L158.508 333.6H154.758V317.25H158.508V329.61ZM177.072 325.44C177.072 323.76 177.532 322.25 178.452 320.91C179.392 319.55 180.672 318.49 182.292 317.73C183.932 316.97 185.752 316.59 187.752 316.59C190.632 316.59 192.862 317.19 194.442 318.39C196.022 319.59 197.192 321.27 197.952 323.43H194.172C193.992 322.71 193.612 322.03 193.032 321.39C192.452 320.75 191.712 320.24 190.812 319.86C189.912 319.48 188.922 319.29 187.842 319.29C186.362 319.29 185.102 319.56 184.062 320.1C183.022 320.64 182.232 321.38 181.692 322.32C181.172 323.24 180.912 324.28 180.912 325.44C180.912 326.44 181.162 327.42 181.662 328.38C182.162 329.34 182.932 330.13 183.972 330.75C185.012 331.35 186.302 331.63 187.842 331.59C188.942 331.59 189.942 331.4 190.842 331.02C191.742 330.62 192.472 330.11 193.032 329.49C193.612 328.85 193.982 328.18 194.142 327.48H197.922C197.782 328.6 197.212 329.69 196.212 330.75C195.232 331.79 193.982 332.64 192.462 333.3C190.962 333.96 189.392 334.29 187.752 334.29C185.852 334.29 184.082 333.91 182.442 333.15C180.802 332.37 179.492 331.3 178.512 329.94C177.552 328.58 177.072 327.08 177.072 325.44ZM218.834 317.25V320.58H210.704V333.6H206.954V320.58H198.704V317.25H218.834ZM241.146 325.8C241.106 327.24 240.766 328.6 240.126 329.88C239.486 331.14 238.566 332.17 237.366 332.97C236.186 333.75 234.796 334.14 233.196 334.14C229.736 334.14 227.096 333.28 225.276 331.56V339.3H221.526V317.25H224.646L225.126 319.65C227.006 317.81 229.696 316.89 233.196 316.89C234.736 316.89 236.096 317.27 237.276 318.03C238.476 318.79 239.416 319.83 240.096 321.15C240.776 322.47 241.126 323.95 241.146 325.59V325.68V325.8ZM231.096 331.5C232.396 331.5 233.496 331.2 234.396 330.6C235.316 329.98 236.006 329.22 236.466 328.32C236.946 327.4 237.196 326.51 237.216 325.65C237.196 324.63 236.966 323.66 236.526 322.74C236.106 321.8 235.436 321.03 234.516 320.43C233.616 319.81 232.476 319.5 231.096 319.5C229.956 319.5 228.946 319.79 228.066 320.37C227.186 320.93 226.496 321.67 225.996 322.59C225.516 323.49 225.276 324.44 225.276 325.44C225.276 326.54 225.516 327.55 225.996 328.47C226.476 329.39 227.156 330.13 228.036 330.69C228.936 331.23 229.956 331.5 231.096 331.5ZM247.307 329.61L259.877 317.25H263.627V333.6H259.877V321.24L247.307 333.6H243.557V317.25H247.307V329.61ZM285.941 325.8C285.901 327.24 285.561 328.6 284.921 329.88C284.281 331.14 283.361 332.17 282.161 332.97C280.981 333.75 279.591 334.14 277.991 334.14C274.531 334.14 271.891 333.28 270.071 331.56V339.3H266.321V317.25H269.441L269.921 319.65C271.801 317.81 274.491 316.89 277.991 316.89C279.531 316.89 280.891 317.27 282.071 318.03C283.271 318.79 284.211 319.83 284.891 321.15C285.571 322.47 285.921 323.95 285.941 325.59V325.68V325.8ZM275.891 331.5C277.191 331.5 278.291 331.2 279.191 330.6C280.111 329.98 280.801 329.22 281.261 328.32C281.741 327.4 281.991 326.51 282.011 325.65C281.991 324.63 281.761 323.66 281.321 322.74C280.901 321.8 280.231 321.03 279.311 320.43C278.411 319.81 277.271 319.5 275.891 319.5C274.751 319.5 273.741 319.79 272.861 320.37C271.981 320.93 271.291 321.67 270.791 322.59C270.311 323.49 270.071 324.44 270.071 325.44C270.071 326.54 270.311 327.55 270.791 328.47C271.271 329.39 271.951 330.13 272.831 330.69C273.731 331.23 274.751 331.5 275.891 331.5ZM307.94 317.25L298.34 337.29C297.86 338.19 297.03 338.78 295.85 339.06C294.69 339.36 293.24 339.51 291.5 339.51L291.47 335.82C292.39 335.82 293.04 335.73 293.42 335.55C293.8 335.39 293.99 335.15 293.99 334.83C293.99 334.61 293.91 334.34 293.75 334.02C293.61 333.72 293.52 333.53 293.48 333.45L285.05 317.25H289.28L296.81 332.91L303.71 317.25H307.94ZM319.759 316.92C317.699 316.92 316.029 316.46 314.749 315.54C313.469 314.62 312.829 313.24 312.829 311.4H316.309C316.309 312.26 316.589 312.99 317.149 313.59C317.709 314.19 318.549 314.49 319.669 314.49C320.809 314.49 321.669 314.19 322.249 313.59C322.829 312.99 323.119 312.26 323.119 311.4H326.599C326.599 313.24 325.959 314.62 324.679 315.54C323.399 316.46 321.759 316.92 319.759 316.92ZM313.489 329.61L326.059 317.25H329.809V333.6H326.059V321.24L313.489 333.6H309.739V317.25H313.489V329.61ZM352.632 317.25V320.58H344.502V333.6H340.752V320.58H332.502V317.25H352.632ZM61.69 367.65H44.65C44.71 368.67 45 369.63 45.52 370.53C46.04 371.41 46.81 372.13 47.83 372.69C48.85 373.25 50.09 373.53 51.55 373.53C52.81 373.53 53.92 373.31 54.88 372.87C55.86 372.41 56.61 371.85 57.13 371.19C57.67 370.51 57.94 369.86 57.94 369.24H61.69C61.69 370.28 61.29 371.34 60.49 372.42C59.69 373.5 58.52 374.4 56.98 375.12C55.44 375.84 53.61 376.2 51.49 376.2C49.59 376.2 47.83 375.83 46.21 375.09C44.59 374.33 43.3 373.28 42.34 371.94C41.38 370.58 40.9 369.04 40.9 367.32C40.9 365.56 41.36 364.01 42.28 362.67C43.22 361.31 44.49 360.27 46.09 359.55C47.71 358.81 49.51 358.44 51.49 358.44C53.51 358.44 55.28 358.8 56.8 359.52C58.34 360.24 59.53 361.26 60.37 362.58C61.23 363.88 61.67 365.41 61.69 367.17V367.65ZM51.55 361.14C49.83 361.14 48.44 361.52 47.38 362.28C46.32 363.04 45.56 364.04 45.1 365.28H57.7C57.36 364.04 56.69 363.04 55.69 362.28C54.71 361.52 53.33 361.14 51.55 361.14ZM63.4879 367.44C63.4879 365.76 63.9479 364.25 64.8679 362.91C65.8079 361.55 67.0879 360.49 68.7079 359.73C70.3479 358.97 72.1679 358.59 74.1679 358.59C77.0479 358.59 79.2779 359.19 80.8579 360.39C82.4379 361.59 83.6079 363.27 84.3679 365.43H80.5879C80.4079 364.71 80.0279 364.03 79.4479 363.39C78.8679 362.75 78.1279 362.24 77.2279 361.86C76.3279 361.48 75.3379 361.29 74.2579 361.29C72.7779 361.29 71.5179 361.56 70.4779 362.1C69.4379 362.64 68.6479 363.38 68.1079 364.32C67.5879 365.24 67.3279 366.28 67.3279 367.44C67.3279 368.44 67.5779 369.42 68.0779 370.38C68.5779 371.34 69.3479 372.13 70.3879 372.75C71.4279 373.35 72.7179 373.63 74.2579 373.59C75.3579 373.59 76.3579 373.4 77.2579 373.02C78.1579 372.62 78.8879 372.11 79.4479 371.49C80.0279 370.85 80.3979 370.18 80.5579 369.48H84.3379C84.1979 370.6 83.6279 371.69 82.6279 372.75C81.6479 373.79 80.3979 374.64 78.8779 375.3C77.3779 375.96 75.8079 376.29 74.1679 376.29C72.2679 376.29 70.4979 375.91 68.8579 375.15C67.2179 374.37 65.9079 373.3 64.9279 371.94C63.9679 370.58 63.4879 369.08 63.4879 367.44ZM96.9937 363.51C99.9537 363.51 102.124 364.02 103.504 365.04C104.904 366.06 105.604 367.57 105.604 369.57V369.66C105.604 371.56 105.044 373.03 103.924 374.07C102.824 375.09 100.934 375.6 98.2537 375.6C97.6937 375.6 97.2837 375.59 97.0237 375.57V375.6H86.7037L86.6137 359.25H90.3637L90.3937 363.51H96.9337H96.9937ZM97.5937 372.78C98.3137 372.78 98.9737 372.73 99.5737 372.63C100.174 372.51 100.734 372.21 101.254 371.73C101.774 371.23 102.034 370.46 102.034 369.42C102.034 368.38 101.774 367.63 101.254 367.17C100.734 366.69 100.194 366.41 99.6337 366.33C99.0937 366.25 98.4137 366.21 97.5937 366.21H97.5337H90.3937L90.4237 372.78H97.5937ZM117.892 367.44C117.892 365.76 118.352 364.25 119.272 362.91C120.212 361.55 121.492 360.49 123.112 359.73C124.752 358.97 126.572 358.59 128.572 358.59C131.452 358.59 133.682 359.19 135.262 360.39C136.842 361.59 138.012 363.27 138.772 365.43H134.992C134.812 364.71 134.432 364.03 133.852 363.39C133.272 362.75 132.532 362.24 131.632 361.86C130.732 361.48 129.742 361.29 128.662 361.29C127.182 361.29 125.922 361.56 124.882 362.1C123.842 362.64 123.052 363.38 122.512 364.32C121.992 365.24 121.732 366.28 121.732 367.44C121.732 368.44 121.982 369.42 122.482 370.38C122.982 371.34 123.752 372.13 124.792 372.75C125.832 373.35 127.122 373.63 128.662 373.59C129.762 373.59 130.762 373.4 131.662 373.02C132.562 372.62 133.292 372.11 133.852 371.49C134.432 370.85 134.802 370.18 134.962 369.48H138.742C138.602 370.6 138.032 371.69 137.032 372.75C136.052 373.79 134.802 374.64 133.282 375.3C131.782 375.96 130.212 376.29 128.572 376.29C126.672 376.29 124.902 375.91 123.262 375.15C121.622 374.37 120.312 373.3 119.332 371.94C118.372 370.58 117.892 369.08 117.892 367.44ZM161.358 367.65H144.318C144.378 368.67 144.668 369.63 145.188 370.53C145.708 371.41 146.478 372.13 147.498 372.69C148.518 373.25 149.758 373.53 151.218 373.53C152.478 373.53 153.588 373.31 154.548 372.87C155.528 372.41 156.278 371.85 156.798 371.19C157.338 370.51 157.608 369.86 157.608 369.24H161.358C161.358 370.28 160.958 371.34 160.158 372.42C159.358 373.5 158.188 374.4 156.648 375.12C155.108 375.84 153.278 376.2 151.158 376.2C149.258 376.2 147.498 375.83 145.878 375.09C144.258 374.33 142.968 373.28 142.008 371.94C141.048 370.58 140.568 369.04 140.568 367.32C140.568 365.56 141.028 364.01 141.948 362.67C142.888 361.31 144.158 360.27 145.758 359.55C147.378 358.81 149.178 358.44 151.158 358.44C153.178 358.44 154.948 358.8 156.468 359.52C158.008 360.24 159.198 361.26 160.038 362.58C160.898 363.88 161.338 365.41 161.358 367.17V367.65ZM151.218 361.14C149.498 361.14 148.108 361.52 147.048 362.28C145.988 363.04 145.228 364.04 144.768 365.28H157.368C157.028 364.04 156.358 363.04 155.358 362.28C154.378 361.52 152.998 361.14 151.218 361.14ZM173.626 358.92C171.566 358.92 169.896 358.46 168.616 357.54C167.336 356.62 166.696 355.24 166.696 353.4H170.176C170.176 354.26 170.456 354.99 171.016 355.59C171.576 356.19 172.416 356.49 173.536 356.49C174.676 356.49 175.536 356.19 176.116 355.59C176.696 354.99 176.986 354.26 176.986 353.4H180.466C180.466 355.24 179.826 356.62 178.546 357.54C177.266 358.46 175.626 358.92 173.626 358.92ZM167.356 371.61L179.926 359.25H183.676V375.6H179.926V363.24L167.356 375.6H163.606V359.25H167.356V371.61ZM201.94 359.25H205.69V375.6H201.94V369.57C200.58 371.25 198.65 372.09 196.15 372.09C193.99 372.09 192.19 371.8 190.75 371.22C189.33 370.62 188.24 369.61 187.48 368.19C186.74 366.77 186.37 364.85 186.37 362.43V359.25H190.12V363.3C190.12 365.08 190.56 366.5 191.44 367.56C192.32 368.6 193.85 369.12 196.03 369.12C197.67 369.12 198.92 368.89 199.78 368.43C200.64 367.97 201.21 367.34 201.49 366.54C201.79 365.74 201.94 364.7 201.94 363.42V359.25ZM218.601 358.53C221.121 358.53 223.381 359.01 225.381 359.97C227.381 360.93 228.381 362.62 228.381 365.04V375.6H225.051L224.631 372.45C224.351 373.03 223.761 373.59 222.861 374.13C221.981 374.65 220.911 375.07 219.651 375.39C218.411 375.71 217.131 375.87 215.811 375.87C214.271 375.87 212.601 375.55 210.801 374.91C209.001 374.27 208.101 372.87 208.101 370.71C208.101 369.29 208.491 368.21 209.271 367.47C210.051 366.71 210.901 366.22 211.821 366C212.741 365.76 213.561 365.64 214.281 365.64C217.741 365.64 220.131 365.62 221.451 365.58C222.791 365.52 223.661 365.41 224.061 365.25C224.461 365.07 224.671 364.76 224.691 364.32V364.05C224.671 363.55 224.371 363.09 223.791 362.67C223.231 362.23 222.481 361.88 221.541 361.62C220.601 361.36 219.601 361.23 218.541 361.23C216.741 361.19 215.211 361.44 213.951 361.98C212.691 362.52 212.061 363.39 212.061 364.59H208.281C208.281 363.05 208.831 361.83 209.931 360.93C211.031 360.03 212.361 359.41 213.921 359.07C215.481 358.71 217.041 358.53 218.601 358.53ZM217.251 372.57C220.051 372.57 221.981 372 223.041 370.86C224.121 369.72 224.661 368.43 224.661 366.99C223.681 367.73 221.681 368.1 218.661 368.1C217.001 368.1 215.711 368.15 214.791 368.25C213.891 368.35 213.221 368.55 212.781 368.85C212.341 369.13 212.101 369.55 212.061 370.11C212.121 370.87 212.531 371.47 213.291 371.91C214.071 372.35 215.391 372.57 217.251 372.57ZM230.627 367.44C230.627 365.76 231.087 364.25 232.007 362.91C232.947 361.55 234.227 360.49 235.847 359.73C237.487 358.97 239.307 358.59 241.307 358.59C244.187 358.59 246.417 359.19 247.997 360.39C249.577 361.59 250.747 363.27 251.507 365.43H247.727C247.547 364.71 247.167 364.03 246.587 363.39C246.007 362.75 245.267 362.24 244.367 361.86C243.467 361.48 242.477 361.29 241.397 361.29C239.917 361.29 238.657 361.56 237.617 362.1C236.577 362.64 235.787 363.38 235.247 364.32C234.727 365.24 234.467 366.28 234.467 367.44C234.467 368.44 234.717 369.42 235.217 370.38C235.717 371.34 236.487 372.13 237.527 372.75C238.567 373.35 239.857 373.63 241.397 373.59C242.497 373.59 243.497 373.4 244.397 373.02C245.297 372.62 246.027 372.11 246.587 371.49C247.167 370.85 247.537 370.18 247.697 369.48H251.477C251.337 370.6 250.767 371.69 249.767 372.75C248.787 373.79 247.537 374.64 246.017 375.3C244.517 375.96 242.947 376.29 241.307 376.29C239.407 376.29 237.637 375.91 235.997 375.15C234.357 374.37 233.047 373.3 232.067 371.94C231.107 370.58 230.627 369.08 230.627 367.44Z" fill="#262626"/>
</svg>
