<svg width="1680" height="249" viewBox="0 0 1680 249" fill="none" xmlns="http://www.w3.org/2000/svg">
<g filter="url(#filter0_b_108_171)">
<path d="M0.5 30.0747C0.5 13.7823 13.7076 0.574707 30 0.574707H559.5V247.575H30C13.7076 247.575 0.5 234.367 0.5 218.075V30.0747Z" fill="url(#paint0_linear_108_171)" fill-opacity="0.8"/>
<path d="M0.5 30.0747C0.5 13.7823 13.7076 0.574707 30 0.574707H559.5V247.575H30C13.7076 247.575 0.5 234.367 0.5 218.075V30.0747Z" stroke="white" style="mix-blend-mode:soft-light"/>
<path d="M245.986 52.0347V123.075H227.074V75.6507H211.042V64.1307C217.186 64.1307 221.73 63.3947 224.674 61.9227C227.682 60.4507 229.506 58.8827 230.146 57.2187C230.85 55.4907 231.202 53.7627 231.202 52.0347H245.986ZM305.152 51.4587C334.784 51.3307 349.6 63.3627 349.6 87.5547C349.6 96.9627 346.592 105.507 340.576 113.187C334.56 120.867 322.752 124.707 305.152 124.707C292.736 124.707 283.136 122.627 276.352 118.467C269.568 114.307 265.056 109.475 262.816 103.971C260.64 98.4027 259.648 92.9307 259.84 87.5547C259.84 78.3387 262.944 70.0187 269.152 62.5947C275.36 55.1707 287.36 51.4587 305.152 51.4587ZM305.248 110.019C311.52 110.019 316.608 108.963 320.512 106.851C324.416 104.675 327.2 101.891 328.864 98.4987C330.528 95.0427 331.296 91.3307 331.168 87.3627C331.296 83.5867 330.528 80.0667 328.864 76.8027C327.2 73.5387 324.416 70.9147 320.512 68.9307C316.608 66.8827 311.52 65.8587 305.248 65.8587C298.976 65.8587 293.888 66.8827 289.984 68.9307C286.144 70.9147 283.392 73.5387 281.728 76.8027C280.128 80.0667 279.392 83.5867 279.52 87.3627C279.392 91.3307 280.128 95.0427 281.728 98.4987C283.392 101.891 286.144 104.675 289.984 106.851C293.888 108.963 298.976 110.019 305.248 110.019Z" fill="white"/>
<path d="M221.112 153.275V168.075H218.512V155.575H211.472C211.206 157.481 210.892 159.201 210.532 160.735C210.186 162.268 209.706 163.748 209.092 165.175C208.679 166.015 208.146 166.688 207.492 167.195C206.839 167.688 206.106 167.981 205.292 168.075V165.475C206.052 165.475 206.672 164.888 207.152 163.715C208.192 160.621 208.852 157.141 209.132 153.275H221.112ZM236.625 161.475H226.105V165.855L238.305 165.775V168.075H223.505V153.275H238.305L238.325 155.575H226.105V159.175H236.625V161.475ZM240.119 155.515V153.275H256.539L240.119 155.515ZM256.539 153.275V155.575H249.679V168.075H247.079V155.575H240.119V153.275H256.539ZM274.094 152.955C275.787 152.955 277.307 153.295 278.654 153.975C280.014 154.641 281.074 155.568 281.834 156.755C282.607 157.928 282.994 159.255 282.994 160.735C282.994 162.201 282.607 163.521 281.834 164.695C281.074 165.868 280.02 166.795 278.674 167.475C277.327 168.141 275.807 168.475 274.114 168.475C272.474 168.475 270.967 168.141 269.594 167.475C268.22 166.795 267.134 165.868 266.334 164.695C265.534 163.508 265.134 162.188 265.134 160.735C265.134 159.268 265.534 157.941 266.334 156.755C267.134 155.568 268.214 154.641 269.574 153.975C270.947 153.295 272.454 152.955 274.094 152.955ZM274.094 166.215C275.174 166.215 276.194 166.001 277.154 165.575C278.114 165.148 278.887 164.521 279.474 163.695C280.06 162.868 280.354 161.881 280.354 160.735C280.354 159.615 280.054 158.635 279.454 157.795C278.867 156.955 278.087 156.315 277.114 155.875C276.14 155.435 275.114 155.215 274.034 155.215C272.86 155.215 271.794 155.435 270.834 155.875C269.887 156.315 269.14 156.955 268.594 157.795C268.047 158.621 267.774 159.601 267.774 160.735C267.774 161.895 268.06 162.888 268.634 163.715C269.22 164.541 269.994 165.168 270.954 165.595C271.914 166.008 272.96 166.215 274.094 166.215ZM301.091 153.275V168.075H298.391V155.575H287.591V168.075H284.891V153.275H301.091ZM311.885 157.835C313.152 157.835 314.258 158.035 315.205 158.435C316.152 158.835 316.885 159.421 317.405 160.195C317.938 160.968 318.205 161.895 318.205 162.975V163.055C318.205 164.041 317.938 164.915 317.405 165.675C316.885 166.435 316.145 167.028 315.185 167.455C314.238 167.868 313.145 168.075 311.905 168.075H303.485V153.275H306.085V157.835H311.845H311.885ZM319.345 168.075V153.275H321.945V168.075H319.345ZM312.785 165.975C313.278 165.975 313.738 165.855 314.165 165.615C314.605 165.375 314.952 165.021 315.205 164.555C315.472 164.088 315.605 163.535 315.605 162.895C315.605 161.895 315.332 161.148 314.785 160.655C314.252 160.161 313.585 159.915 312.785 159.915H312.765H306.085V165.935C309.245 165.935 311.292 165.948 312.225 165.975H312.785ZM324.045 155.515V153.275H340.465L324.045 155.515ZM340.465 153.275V155.575H333.605V168.075H331.005V155.575H324.045V153.275H340.465ZM355.507 168.075H352.707L350.847 164.635H341.027L339.167 168.075H336.367L344.387 153.275H347.487L355.507 168.075ZM345.947 155.575L342.347 162.195H349.527L345.947 155.575ZM185.75 181.275V196.075H183.05V183.575H172.25V196.075H169.55V181.275H185.75ZM198.263 181.275C199.503 181.275 200.597 181.481 201.543 181.895C202.503 182.308 203.243 182.888 203.763 183.635C204.297 184.368 204.563 185.221 204.563 186.195V186.275C204.563 187.915 204.103 189.161 203.183 190.015C202.263 190.855 200.87 191.275 199.003 191.275H190.763V196.075H188.143V181.275H198.263ZM198.123 189.055C198.923 189.055 199.577 189.008 200.083 188.915C200.603 188.821 201.043 188.581 201.403 188.195C201.777 187.795 201.963 187.175 201.963 186.335C201.963 185.455 201.777 184.808 201.403 184.395C201.043 183.968 200.61 183.708 200.103 183.615C199.597 183.521 198.937 183.475 198.123 183.475H197.263C196.877 183.475 196.21 183.481 195.263 183.495C194.33 183.495 192.823 183.495 190.743 183.495L190.763 189.055H198.103H198.123ZM219.681 189.475H209.161V193.855L221.361 193.775V196.075H206.561V181.275H221.361L221.381 183.575H209.161V187.175H219.681V189.475ZM239.675 181.275V196.075H236.975V183.575H226.175V196.075H223.475V181.275H239.675ZM250.529 180.955C252.222 180.955 253.742 181.295 255.089 181.975C256.449 182.641 257.509 183.568 258.269 184.755C259.042 185.928 259.429 187.255 259.429 188.735C259.429 190.201 259.042 191.521 258.269 192.695C257.509 193.868 256.456 194.795 255.109 195.475C253.762 196.141 252.242 196.475 250.549 196.475C248.909 196.475 247.402 196.141 246.029 195.475C244.656 194.795 243.569 193.868 242.769 192.695C241.969 191.508 241.569 190.188 241.569 188.735C241.569 187.268 241.969 185.941 242.769 184.755C243.569 183.568 244.649 182.641 246.009 181.975C247.382 181.295 248.889 180.955 250.529 180.955ZM250.529 194.215C251.609 194.215 252.629 194.001 253.589 193.575C254.549 193.148 255.322 192.521 255.909 191.695C256.496 190.868 256.789 189.881 256.789 188.735C256.789 187.615 256.489 186.635 255.889 185.795C255.302 184.955 254.522 184.315 253.549 183.875C252.576 183.435 251.549 183.215 250.469 183.215C249.296 183.215 248.229 183.435 247.269 183.875C246.322 184.315 245.576 184.955 245.029 185.795C244.482 186.621 244.209 187.601 244.209 188.735C244.209 189.895 244.496 190.888 245.069 191.715C245.656 192.541 246.429 193.168 247.389 193.595C248.349 194.008 249.396 194.215 250.529 194.215ZM275.596 193.675H277.576V197.995H275.056V196.095L262.116 196.075V197.995H259.596V193.675H260.596C261.822 191.835 262.722 189.921 263.296 187.935C263.882 185.948 264.176 183.728 264.176 181.275H275.576L275.596 193.675ZM266.576 183.475C266.269 187.341 265.176 190.741 263.296 193.675H273.096V183.495L266.576 183.475ZM287.892 180.955C289.586 180.955 291.106 181.295 292.452 181.975C293.812 182.641 294.872 183.568 295.632 184.755C296.406 185.928 296.792 187.255 296.792 188.735C296.792 190.201 296.406 191.521 295.632 192.695C294.872 193.868 293.819 194.795 292.472 195.475C291.126 196.141 289.606 196.475 287.912 196.475C286.272 196.475 284.766 196.141 283.392 195.475C282.019 194.795 280.932 193.868 280.132 192.695C279.332 191.508 278.932 190.188 278.932 188.735C278.932 187.268 279.332 185.941 280.132 184.755C280.932 183.568 282.012 182.641 283.372 181.975C284.746 181.295 286.252 180.955 287.892 180.955ZM287.892 194.215C288.972 194.215 289.992 194.001 290.952 193.575C291.912 193.148 292.686 192.521 293.272 191.695C293.859 190.868 294.152 189.881 294.152 188.735C294.152 187.615 293.852 186.635 293.252 185.795C292.666 184.955 291.886 184.315 290.912 183.875C289.939 183.435 288.912 183.215 287.832 183.215C286.659 183.215 285.592 183.435 284.632 183.875C283.686 184.315 282.939 184.955 282.392 185.795C281.846 186.621 281.572 187.601 281.572 188.735C281.572 189.895 281.859 190.888 282.432 191.715C283.019 192.541 283.792 193.168 284.752 193.595C285.712 194.008 286.759 194.215 287.892 194.215ZM312.47 188.315C313.59 188.541 314.437 188.935 315.01 189.495C315.584 190.041 315.87 190.828 315.87 191.855V191.935C315.87 193.175 315.577 194.088 314.99 194.675C314.417 195.261 313.644 195.641 312.67 195.815C311.71 195.975 310.364 196.068 308.63 196.095H308.59H307.63L298.69 196.075V181.275H309.55C311.097 181.288 312.33 181.608 313.25 182.235C314.17 182.861 314.63 183.748 314.63 184.895V184.975C314.63 185.841 314.45 186.548 314.09 187.095C313.73 187.641 313.19 188.048 312.47 188.315ZM312.07 185.315C312.07 184.701 311.937 184.255 311.67 183.975C311.417 183.695 311.084 183.521 310.67 183.455C310.257 183.388 309.664 183.355 308.89 183.355H308.85H301.27V187.275C301.884 187.288 302.49 187.295 303.09 187.295C303.69 187.295 304.257 187.301 304.79 187.315C306.044 187.315 306.71 187.321 306.79 187.335H308.89C309.704 187.335 310.297 187.308 310.67 187.255C311.057 187.201 311.384 187.035 311.65 186.755C311.93 186.461 312.07 185.981 312.07 185.315ZM301.27 187.535H301.31L301.27 187.515V187.535ZM309.53 193.935C310.45 193.935 311.137 193.901 311.59 193.835C312.044 193.755 312.404 193.555 312.67 193.235C312.95 192.901 313.09 192.368 313.09 191.635C313.09 190.928 312.95 190.421 312.67 190.115C312.404 189.795 312.044 189.601 311.59 189.535C311.137 189.455 310.45 189.415 309.53 189.415H309.51H301.27V193.895C304.617 193.895 307.037 193.908 308.53 193.935H309.53ZM335.81 196.075H333.01L331.15 192.635H321.33L319.47 196.075H316.67L324.69 181.275H327.79L335.81 196.075ZM326.25 183.575L322.65 190.195H329.83L326.25 183.575ZM339.611 186.895H350.211V181.275H352.811V196.075H350.211V189.295H339.611V196.075H337.011V181.275H339.611V186.895ZM357.814 181.275V193.015L369.614 181.275H372.214V196.075H369.614V184.335L357.814 196.075H355.214V181.275H357.814ZM388.088 188.975C388.102 187.548 388.102 186.941 388.088 187.155V188.975ZM390.448 196.035H387.828V191.255H381.408L377.308 196.035H373.908L378.208 191.035C376.902 190.755 375.875 190.201 375.128 189.375C374.395 188.548 374.028 187.501 374.028 186.235V186.155C374.028 185.181 374.288 184.328 374.808 183.595C375.342 182.848 376.082 182.268 377.028 181.855C377.988 181.441 379.088 181.235 380.328 181.235H390.448V196.035ZM376.688 186.335C376.688 187.161 376.862 187.768 377.208 188.155C377.555 188.528 377.982 188.761 378.488 188.855C378.995 188.935 379.682 188.975 380.548 188.975H380.588H387.828V183.615C384.975 183.615 382.882 183.588 381.548 183.535C381.268 183.521 380.935 183.515 380.548 183.515C379.682 183.515 378.995 183.561 378.488 183.655C377.982 183.748 377.555 184.001 377.208 184.415C376.862 184.815 376.688 185.455 376.688 186.335Z" fill="#D1D1D1"/>
<rect x="560.5" y="0.574707" width="559" height="247" fill="url(#paint1_linear_108_171)" fill-opacity="0.8"/>
<rect x="560.5" y="0.574707" width="559" height="247" stroke="white" style="mix-blend-mode:soft-light"/>
<path d="M884.517 108.003V123.075H796.197V115.395C796.197 107.139 797.893 100.835 801.285 96.4827C804.741 92.0667 808.741 89.0907 813.285 87.5547C817.829 85.9547 823.653 84.5787 830.757 83.4267C832.677 83.1707 835.973 82.7547 840.645 82.1787C845.701 81.6027 849.637 81.0587 852.453 80.5467C855.269 79.9707 857.605 79.1387 859.461 78.0507C861.381 76.8987 862.341 75.3627 862.341 73.4427C862.341 70.0507 860.037 67.5867 855.429 66.0507C850.885 64.4507 845.349 63.6827 838.821 63.7467C832.549 63.8107 827.205 64.8027 822.789 66.7227C818.437 68.5787 816.261 71.5227 816.261 75.5547H796.197C796.197 68.8347 798.533 63.5867 803.205 59.8107C807.877 55.9707 813.381 53.3787 819.717 52.0347C826.117 50.6267 832.453 49.9227 838.725 49.9227C850.117 49.9227 860.293 51.4587 869.253 54.5307C878.213 57.6027 882.693 63.9387 882.693 73.5387C882.693 78.5947 880.805 82.6267 877.029 85.6347C873.253 88.6427 868.965 90.7867 864.165 92.0667C859.429 93.2827 854.021 94.3387 847.941 95.2347C845.125 95.6827 843.525 95.9387 843.141 96.0027C838.533 96.5787 833.989 97.5067 829.509 98.7867C825.093 100.003 821.445 101.443 818.565 103.107C815.749 104.707 814.341 106.339 814.341 108.003H884.517Z" fill="white"/>
<path d="M771.833 153.275V168.075H769.233V157.535L764.093 168.075H761.273L755.753 157.355V168.075H753.153V153.275H756.473L762.653 165.255L768.493 153.275H771.833ZM787.347 161.475H776.827V165.855L789.027 165.775V168.075H774.227V153.275H789.027L789.047 155.575H776.827V159.175H787.347V161.475ZM790.741 160.695C790.741 159.215 791.135 157.881 791.921 156.695C792.721 155.508 793.808 154.581 795.181 153.915C796.555 153.235 798.081 152.895 799.761 152.895C801.775 152.895 803.541 153.395 805.061 154.395C806.595 155.395 807.701 156.815 808.381 158.655L805.661 158.695C805.381 157.948 804.908 157.308 804.241 156.775C803.575 156.241 802.835 155.841 802.021 155.575C801.221 155.295 800.475 155.155 799.781 155.155C798.741 155.155 797.721 155.375 796.721 155.815C795.735 156.241 794.921 156.875 794.281 157.715C793.655 158.555 793.341 159.548 793.341 160.695C793.341 161.868 793.635 162.868 794.221 163.695C794.808 164.521 795.588 165.148 796.561 165.575C797.548 166.001 798.621 166.215 799.781 166.215C800.461 166.215 801.175 166.088 801.921 165.835C802.668 165.568 803.368 165.175 804.021 164.655C804.675 164.135 805.195 163.501 805.581 162.755H808.401C807.655 164.621 806.528 166.041 805.021 167.015C803.528 167.988 801.775 168.475 799.761 168.475C798.095 168.475 796.568 168.135 795.181 167.455C793.808 166.775 792.721 165.841 791.921 164.655C791.135 163.468 790.741 162.148 790.741 160.695ZM823.879 160.975C823.893 159.548 823.893 158.941 823.879 159.155V160.975ZM826.239 168.035H823.619V163.255H817.199L813.099 168.035H809.699L813.999 163.035C812.693 162.755 811.666 162.201 810.919 161.375C810.186 160.548 809.819 159.501 809.819 158.235V158.155C809.819 157.181 810.079 156.328 810.599 155.595C811.133 154.848 811.873 154.268 812.819 153.855C813.779 153.441 814.879 153.235 816.119 153.235H826.239V168.035ZM812.479 158.335C812.479 159.161 812.653 159.768 812.999 160.155C813.346 160.528 813.773 160.761 814.279 160.855C814.786 160.935 815.473 160.975 816.339 160.975H816.379H823.619V155.615C820.766 155.615 818.673 155.588 817.339 155.535C817.059 155.521 816.726 155.515 816.339 155.515C815.473 155.515 814.786 155.561 814.279 155.655C813.773 155.748 813.346 156.001 812.999 156.415C812.653 156.815 812.479 157.455 812.479 158.335ZM841.741 153.275H844.341V165.575H845.961V170.675H843.261V168.075H828.641V153.275H831.241V165.575H841.741V153.275ZM865.703 168.075H862.903L861.043 164.635H851.223L849.363 168.075H846.562L854.583 153.275H857.683L865.703 168.075ZM856.143 155.575L852.543 162.195H859.723L856.143 155.575ZM889.355 165.675H891.335V169.995H888.815V168.095L875.875 168.075V169.995H873.355V165.675H874.355C875.582 163.835 876.482 161.921 877.055 159.935C877.642 157.948 877.935 155.728 877.935 153.275H889.335L889.355 165.675ZM880.335 155.475C880.029 159.341 878.935 162.741 877.055 165.675H886.855V155.495L880.335 155.475ZM908.612 153.275V168.075H906.012V155.575H898.972C898.706 157.481 898.392 159.201 898.032 160.735C897.686 162.268 897.206 163.748 896.592 165.175C896.179 166.015 895.646 166.688 894.992 167.195C894.339 167.688 893.606 167.981 892.792 168.075V165.475C893.552 165.475 894.172 164.888 894.652 163.715C895.692 160.621 896.352 157.141 896.632 153.275H908.612ZM924.485 160.975C924.498 159.548 924.498 158.941 924.485 159.155V160.975ZM926.845 168.035H924.225V163.255H917.805L913.705 168.035H910.305L914.605 163.035C913.298 162.755 912.271 162.201 911.525 161.375C910.791 160.548 910.425 159.501 910.425 158.235V158.155C910.425 157.181 910.685 156.328 911.205 155.595C911.738 154.848 912.478 154.268 913.425 153.855C914.385 153.441 915.485 153.235 916.725 153.235H926.845V168.035ZM913.085 158.335C913.085 159.161 913.258 159.768 913.605 160.155C913.951 160.528 914.378 160.761 914.885 160.855C915.391 160.935 916.078 160.975 916.945 160.975H916.985H924.225V155.615C921.371 155.615 919.278 155.588 917.945 155.535C917.665 155.521 917.331 155.515 916.945 155.515C916.078 155.515 915.391 155.561 914.885 155.655C914.378 155.748 913.951 156.001 913.605 156.415C913.258 156.815 913.085 157.455 913.085 158.335ZM778.283 180.955C779.976 180.955 781.496 181.295 782.843 181.975C784.203 182.641 785.263 183.568 786.023 184.755C786.796 185.928 787.183 187.255 787.183 188.735C787.183 190.201 786.796 191.521 786.023 192.695C785.263 193.868 784.21 194.795 782.863 195.475C781.516 196.141 779.996 196.475 778.303 196.475C776.663 196.475 775.156 196.141 773.783 195.475C772.41 194.795 771.323 193.868 770.523 192.695C769.723 191.508 769.323 190.188 769.323 188.735C769.323 187.268 769.723 185.941 770.523 184.755C771.323 183.568 772.403 182.641 773.763 181.975C775.136 181.295 776.643 180.955 778.283 180.955ZM778.283 194.215C779.363 194.215 780.383 194.001 781.343 193.575C782.303 193.148 783.076 192.521 783.663 191.695C784.25 190.868 784.543 189.881 784.543 188.735C784.543 187.615 784.243 186.635 783.643 185.795C783.056 184.955 782.276 184.315 781.303 183.875C780.33 183.435 779.303 183.215 778.223 183.215C777.05 183.215 775.983 183.435 775.023 183.875C774.076 184.315 773.33 184.955 772.783 185.795C772.236 186.621 771.963 187.601 771.963 188.735C771.963 189.895 772.25 190.888 772.823 191.715C773.41 192.541 774.183 193.168 775.143 193.595C776.103 194.008 777.15 194.215 778.283 194.215ZM796.201 186.475C798.601 186.475 800.414 186.661 801.641 187.035C802.868 187.408 803.674 187.915 804.061 188.555C804.461 189.195 804.661 190.021 804.661 191.035V191.095C804.661 191.921 804.508 192.688 804.201 193.395C803.894 194.101 803.161 194.735 802.001 195.295C800.854 195.855 799.128 196.135 796.821 196.135H789.081V181.335H803.701V183.635H791.681V186.475H796.201ZM797.521 193.915C799.121 193.915 800.274 193.681 800.981 193.215C801.701 192.735 802.061 192.021 802.061 191.075C802.061 190.448 801.908 189.961 801.601 189.615C801.308 189.268 800.834 189.028 800.181 188.895C799.541 188.748 798.654 188.675 797.521 188.675H797.501H791.681V193.875C794.628 193.875 796.421 193.888 797.061 193.915H797.521ZM822.028 181.275L814.588 193.835C814.214 194.568 813.501 195.135 812.448 195.535C811.408 195.935 810.214 196.135 808.868 196.135C808.601 196.135 808.394 196.128 808.248 196.115V193.855C809.808 193.855 810.588 193.588 810.588 193.055C810.588 192.895 810.528 192.728 810.408 192.555L804.368 181.275H807.188L812.868 191.895L819.208 181.275H822.028ZM834.819 181.275H837.419V196.075H834.819V190.635C833.806 191.888 832.292 192.515 830.279 192.515C827.932 192.515 826.132 191.961 824.879 190.855C823.639 189.735 823.019 188.108 823.019 185.975V181.275H825.619V185.915C825.619 187.101 825.959 188.088 826.639 188.875C827.319 189.648 828.512 190.035 830.219 190.035C831.752 190.035 832.899 189.728 833.659 189.115C834.432 188.488 834.819 187.441 834.819 185.975V181.275ZM852.943 189.475H842.423V193.855L854.623 193.775V196.075H839.823V181.275H854.623L854.643 183.575H842.423V187.175H852.943V189.475ZM859.337 186.895H869.937V181.275H872.537V196.075H869.937V189.295H859.337V196.075H856.737V181.275H859.337V186.895ZM877.54 181.275V193.015L889.34 181.275H891.94V196.075H889.34V184.335L877.54 196.075H874.94V181.275H877.54ZM907.815 188.975C907.828 187.548 907.828 186.941 907.815 187.155V188.975ZM910.175 196.035H907.555V191.255H901.135L897.035 196.035H893.635L897.935 191.035C896.628 190.755 895.601 190.201 894.855 189.375C894.121 188.548 893.755 187.501 893.755 186.235V186.155C893.755 185.181 894.015 184.328 894.535 183.595C895.068 182.848 895.808 182.268 896.755 181.855C897.715 181.441 898.815 181.235 900.055 181.235H910.175V196.035ZM896.415 186.335C896.415 187.161 896.588 187.768 896.935 188.155C897.281 188.528 897.708 188.761 898.215 188.855C898.721 188.935 899.408 188.975 900.275 188.975H900.315H907.555V183.615C904.701 183.615 902.608 183.588 901.275 183.535C900.995 183.521 900.661 183.515 900.275 183.515C899.408 183.515 898.721 183.561 898.215 183.655C897.708 183.748 897.281 184.001 896.935 184.415C896.588 184.815 896.415 185.455 896.415 186.335Z" fill="#D1D1D1"/>
<path d="M1120.5 0.574707H1650C1666.29 0.574707 1679.5 13.7823 1679.5 30.0747V218.075C1679.5 234.367 1666.29 247.575 1650 247.575H1120.5V0.574707Z" fill="url(#paint2_linear_108_171)" fill-opacity="0.8"/>
<path d="M1120.5 0.574707H1650C1666.29 0.574707 1679.5 13.7823 1679.5 30.0747V218.075C1679.5 234.367 1666.29 247.575 1650 247.575H1120.5V0.574707Z" stroke="white" style="mix-blend-mode:soft-light"/>
<path d="M1367.53 108.003V123.075H1279.21V115.395C1279.21 107.139 1280.91 100.835 1284.3 96.4827C1287.76 92.0667 1291.76 89.0907 1296.3 87.5547C1300.84 85.9547 1306.67 84.5787 1313.77 83.4267C1315.69 83.1707 1318.99 82.7547 1323.66 82.1787C1328.72 81.6027 1332.65 81.0587 1335.47 80.5467C1338.28 79.9707 1340.62 79.1387 1342.48 78.0507C1344.4 76.8987 1345.36 75.3627 1345.36 73.4427C1345.36 70.0507 1343.05 67.5867 1338.44 66.0507C1333.9 64.4507 1328.36 63.6827 1321.84 63.7467C1315.56 63.8107 1310.22 64.8027 1305.8 66.7227C1301.45 68.5787 1299.28 71.5227 1299.28 75.5547H1279.21C1279.21 68.8347 1281.55 63.5867 1286.22 59.8107C1290.89 55.9707 1296.4 53.3787 1302.73 52.0347C1309.13 50.6267 1315.47 49.9227 1321.74 49.9227C1333.13 49.9227 1343.31 51.4587 1352.27 54.5307C1361.23 57.6027 1365.71 63.9387 1365.71 73.5387C1365.71 78.5947 1363.82 82.6267 1360.04 85.6347C1356.27 88.6427 1351.98 90.7867 1347.18 92.0667C1342.44 93.2827 1337.04 94.3387 1330.96 95.2347C1328.14 95.6827 1326.54 95.9387 1326.16 96.0027C1321.55 96.5787 1317 97.5067 1312.52 98.7867C1308.11 100.003 1304.46 101.443 1301.58 103.107C1298.76 104.707 1297.36 106.339 1297.36 108.003H1367.53ZM1424.42 51.4587C1454.05 51.3307 1468.87 63.3627 1468.87 87.5547C1468.87 96.9627 1465.86 105.507 1459.84 113.187C1453.83 120.867 1442.02 124.707 1424.42 124.707C1412 124.707 1402.4 122.627 1395.62 118.467C1388.83 114.307 1384.32 109.475 1382.08 103.971C1379.91 98.4027 1378.91 92.9307 1379.11 87.5547C1379.11 78.3387 1382.21 70.0187 1388.42 62.5947C1394.63 55.1707 1406.63 51.4587 1424.42 51.4587ZM1424.51 110.019C1430.79 110.019 1435.87 108.963 1439.78 106.851C1443.68 104.675 1446.47 101.891 1448.13 98.4987C1449.79 95.0427 1450.56 91.3307 1450.43 87.3627C1450.56 83.5867 1449.79 80.0667 1448.13 76.8027C1446.47 73.5387 1443.68 70.9147 1439.78 68.9307C1435.87 66.8827 1430.79 65.8587 1424.51 65.8587C1418.24 65.8587 1413.15 66.8827 1409.25 68.9307C1405.41 70.9147 1402.66 73.5387 1400.99 76.8027C1399.39 80.0667 1398.66 83.5867 1398.79 87.3627C1398.66 91.3307 1399.39 95.0427 1400.99 98.4987C1402.66 101.891 1405.41 104.675 1409.25 106.851C1413.15 108.963 1418.24 110.019 1424.51 110.019ZM1506.24 86.7867H1522.46V97.1547H1506.24V113.475H1495.87V97.1547H1479.55V86.7867H1495.87V70.5627H1506.24V86.7867Z" fill="white"/>
<path d="M1286.63 153.275V168.075H1284.03V157.535L1278.89 168.075H1276.07L1270.55 157.355V168.075H1267.95V153.275H1271.27L1277.45 165.255L1283.29 153.275H1286.63ZM1297.48 152.955C1299.18 152.955 1300.7 153.295 1302.04 153.975C1303.4 154.641 1304.46 155.568 1305.22 156.755C1306 157.928 1306.38 159.255 1306.38 160.735C1306.38 162.201 1306 163.521 1305.22 164.695C1304.46 165.868 1303.41 166.795 1302.06 167.475C1300.72 168.141 1299.2 168.475 1297.5 168.475C1295.86 168.475 1294.36 168.141 1292.98 167.475C1291.61 166.795 1290.52 165.868 1289.72 164.695C1288.92 163.508 1288.52 162.188 1288.52 160.735C1288.52 159.268 1288.92 157.941 1289.72 156.755C1290.52 155.568 1291.6 154.641 1292.96 153.975C1294.34 153.295 1295.84 152.955 1297.48 152.955ZM1297.48 166.215C1298.56 166.215 1299.58 166.001 1300.54 165.575C1301.5 165.148 1302.28 164.521 1302.86 163.695C1303.45 162.868 1303.74 161.881 1303.74 160.735C1303.74 159.615 1303.44 158.635 1302.84 157.795C1302.26 156.955 1301.48 156.315 1300.5 155.875C1299.53 155.435 1298.5 155.215 1297.42 155.215C1296.25 155.215 1295.18 155.435 1294.22 155.875C1293.28 156.315 1292.53 156.955 1291.98 157.795C1291.44 158.621 1291.16 159.601 1291.16 160.735C1291.16 161.895 1291.45 162.888 1292.02 163.715C1292.61 164.541 1293.38 165.168 1294.34 165.595C1295.3 166.008 1296.35 166.215 1297.48 166.215ZM1328.8 153.275H1331.4V165.575H1332.98V170.675H1330.38V168.075H1308.28V153.275H1310.88V165.575H1318.54V153.275H1321.12V165.575H1328.8V153.275ZM1336.99 158.895H1347.59V153.275H1350.19V168.075H1347.59V161.295H1336.99V168.075H1334.39V153.275H1336.99V158.895ZM1361 157.835C1362.26 157.835 1363.37 158.035 1364.32 158.435C1365.26 158.835 1366 159.421 1366.52 160.195C1367.05 160.968 1367.32 161.895 1367.32 162.975V163.055C1367.32 164.041 1367.05 164.915 1366.52 165.675C1366 166.435 1365.26 167.028 1364.3 167.455C1363.35 167.868 1362.26 168.075 1361.02 168.075H1352.6V153.275H1355.2V157.835H1360.96H1361ZM1368.46 168.075V153.275H1371.06V168.075H1368.46ZM1361.9 165.975C1362.39 165.975 1362.85 165.855 1363.28 165.615C1363.72 165.375 1364.06 165.021 1364.32 164.555C1364.58 164.088 1364.72 163.535 1364.72 162.895C1364.72 161.895 1364.44 161.148 1363.9 160.655C1363.36 160.161 1362.7 159.915 1361.9 159.915H1361.88H1355.2V165.935C1358.36 165.935 1360.4 165.948 1361.34 165.975H1361.9ZM1386.2 153.275H1389.46L1383.48 160.735L1389.46 168.075H1386.2L1381.12 161.875L1376.04 168.075H1372.76L1378.74 160.735L1372.76 153.275H1376.04L1381.12 159.515L1386.2 153.275ZM1403 160.055L1412.88 168.075H1408.9L1400.74 161.215V168.075H1398.14V153.275H1400.74V158.995L1408.52 153.275H1412.56L1403 160.055ZM1427.4 161.475H1416.88V165.855L1429.08 165.775V168.075H1414.28V153.275H1429.08L1429.1 155.575H1416.88V159.175H1427.4V161.475ZM1439.65 153.575C1438.16 153.575 1436.95 153.248 1436.03 152.595C1435.12 151.941 1434.67 150.941 1434.67 149.595H1436.59C1436.58 150.341 1436.84 150.941 1437.37 151.395C1437.92 151.835 1438.65 152.055 1439.57 152.055C1440.5 152.055 1441.25 151.835 1441.81 151.395C1442.37 150.941 1442.65 150.341 1442.65 149.595H1444.57C1444.57 150.915 1444.11 151.908 1443.19 152.575C1442.28 153.241 1441.1 153.575 1439.65 153.575ZM1433.79 165.015L1445.59 153.275H1448.19V168.075H1445.59V156.335L1433.79 168.075H1431.19V153.275H1433.79V165.015ZM1450.18 160.695C1450.18 159.215 1450.58 157.881 1451.36 156.695C1452.16 155.508 1453.25 154.581 1454.62 153.915C1456 153.235 1457.52 152.895 1459.2 152.895C1461.22 152.895 1462.98 153.395 1464.5 154.395C1466.04 155.395 1467.14 156.815 1467.82 158.655L1465.1 158.695C1464.82 157.948 1464.35 157.308 1463.68 156.775C1463.02 156.241 1462.28 155.841 1461.46 155.575C1460.66 155.295 1459.92 155.155 1459.22 155.155C1458.18 155.155 1457.16 155.375 1456.16 155.815C1455.18 156.241 1454.36 156.875 1453.72 157.715C1453.1 158.555 1452.78 159.548 1452.78 160.695C1452.78 161.868 1453.08 162.868 1453.66 163.695C1454.25 164.521 1455.03 165.148 1456 165.575C1456.99 166.001 1458.06 166.215 1459.22 166.215C1459.9 166.215 1460.62 166.088 1461.36 165.835C1462.11 165.568 1462.81 165.175 1463.46 164.655C1464.12 164.135 1464.64 163.501 1465.02 162.755H1467.84C1467.1 164.621 1465.97 166.041 1464.46 167.015C1462.97 167.988 1461.22 168.475 1459.2 168.475C1457.54 168.475 1456.01 168.135 1454.62 167.455C1453.25 166.775 1452.16 165.841 1451.36 164.655C1450.58 163.468 1450.18 162.148 1450.18 160.695ZM1478.3 152.955C1480 152.955 1481.52 153.295 1482.86 153.975C1484.22 154.641 1485.28 155.568 1486.04 156.755C1486.82 157.928 1487.2 159.255 1487.2 160.735C1487.2 162.201 1486.82 163.521 1486.04 164.695C1485.28 165.868 1484.23 166.795 1482.88 167.475C1481.54 168.141 1480.02 168.475 1478.32 168.475C1476.68 168.475 1475.18 168.141 1473.8 167.475C1472.43 166.795 1471.34 165.868 1470.54 164.695C1469.74 163.508 1469.34 162.188 1469.34 160.735C1469.34 159.268 1469.74 157.941 1470.54 156.755C1471.34 155.568 1472.42 154.641 1473.78 153.975C1475.16 153.295 1476.66 152.955 1478.3 152.955ZM1478.3 166.215C1479.38 166.215 1480.4 166.001 1481.36 165.575C1482.32 165.148 1483.1 164.521 1483.68 163.695C1484.27 162.868 1484.56 161.881 1484.56 160.735C1484.56 159.615 1484.26 158.635 1483.66 157.795C1483.08 156.955 1482.3 156.315 1481.32 155.875C1480.35 155.435 1479.32 155.215 1478.24 155.215C1477.07 155.215 1476 155.435 1475.04 155.875C1474.1 156.315 1473.35 156.955 1472.8 157.795C1472.26 158.621 1471.98 159.601 1471.98 160.735C1471.98 161.895 1472.27 162.888 1472.84 163.715C1473.43 164.541 1474.2 165.168 1475.16 165.595C1476.12 166.008 1477.17 166.215 1478.3 166.215ZM1502.88 160.315C1504 160.541 1504.85 160.935 1505.42 161.495C1505.99 162.041 1506.28 162.828 1506.28 163.855V163.935C1506.28 165.175 1505.99 166.088 1505.4 166.675C1504.83 167.261 1504.05 167.641 1503.08 167.815C1502.12 167.975 1500.77 168.068 1499.04 168.095H1499H1498.04L1489.1 168.075V153.275H1499.96C1501.51 153.288 1502.74 153.608 1503.66 154.235C1504.58 154.861 1505.04 155.748 1505.04 156.895V156.975C1505.04 157.841 1504.86 158.548 1504.5 159.095C1504.14 159.641 1503.6 160.048 1502.88 160.315ZM1502.48 157.315C1502.48 156.701 1502.35 156.255 1502.08 155.975C1501.83 155.695 1501.49 155.521 1501.08 155.455C1500.67 155.388 1500.07 155.355 1499.3 155.355H1499.26H1491.68V159.275C1492.29 159.288 1492.9 159.295 1493.5 159.295C1494.1 159.295 1494.67 159.301 1495.2 159.315C1496.45 159.315 1497.12 159.321 1497.2 159.335H1499.3C1500.11 159.335 1500.71 159.308 1501.08 159.255C1501.47 159.201 1501.79 159.035 1502.06 158.755C1502.34 158.461 1502.48 157.981 1502.48 157.315ZM1491.68 159.535H1491.72L1491.68 159.515V159.535ZM1499.94 165.935C1500.86 165.935 1501.55 165.901 1502 165.835C1502.45 165.755 1502.81 165.555 1503.08 165.235C1503.36 164.901 1503.5 164.368 1503.5 163.635C1503.5 162.928 1503.36 162.421 1503.08 162.115C1502.81 161.795 1502.45 161.601 1502 161.535C1501.55 161.455 1500.86 161.415 1499.94 161.415H1499.92H1491.68V165.895C1495.03 165.895 1497.45 165.908 1498.94 165.935H1499.94ZM1529.05 160.315C1530.17 160.541 1531.02 160.935 1531.59 161.495C1532.17 162.041 1532.45 162.828 1532.45 163.855V163.935C1532.45 165.175 1532.16 166.088 1531.57 166.675C1531 167.261 1530.23 167.641 1529.25 167.815C1528.29 167.975 1526.95 168.068 1525.21 168.095H1525.17H1524.21L1515.27 168.075V153.275H1526.13C1527.68 153.288 1528.91 153.608 1529.83 154.235C1530.75 154.861 1531.21 155.748 1531.21 156.895V156.975C1531.21 157.841 1531.03 158.548 1530.67 159.095C1530.31 159.641 1529.77 160.048 1529.05 160.315ZM1528.65 157.315C1528.65 156.701 1528.52 156.255 1528.25 155.975C1528 155.695 1527.67 155.521 1527.25 155.455C1526.84 155.388 1526.25 155.355 1525.47 155.355H1525.43H1517.85V159.275C1518.47 159.288 1519.07 159.295 1519.67 159.295C1520.27 159.295 1520.84 159.301 1521.37 159.315C1522.63 159.315 1523.29 159.321 1523.37 159.335H1525.47C1526.29 159.335 1526.88 159.308 1527.25 159.255C1527.64 159.201 1527.97 159.035 1528.23 158.755C1528.51 158.461 1528.65 157.981 1528.65 157.315ZM1517.85 159.535H1517.89L1517.85 159.515V159.535ZM1526.11 165.935C1527.03 165.935 1527.72 165.901 1528.17 165.835C1528.63 165.755 1528.99 165.555 1529.25 165.235C1529.53 164.901 1529.67 164.368 1529.67 163.635C1529.67 162.928 1529.53 162.421 1529.25 162.115C1528.99 161.795 1528.63 161.601 1528.17 161.535C1527.72 161.455 1527.03 161.415 1526.11 161.415H1526.09H1517.85V165.895C1521.2 165.895 1523.62 165.908 1525.11 165.935H1526.11ZM1331.26 181.275V196.075H1328.56V183.575H1317.76V196.075H1315.06V181.275H1331.26ZM1342.11 180.955C1343.8 180.955 1345.32 181.295 1346.67 181.975C1348.03 182.641 1349.09 183.568 1349.85 184.755C1350.62 185.928 1351.01 187.255 1351.01 188.735C1351.01 190.201 1350.62 191.521 1349.85 192.695C1349.09 193.868 1348.04 194.795 1346.69 195.475C1345.34 196.141 1343.82 196.475 1342.13 196.475C1340.49 196.475 1338.98 196.141 1337.61 195.475C1336.24 194.795 1335.15 193.868 1334.35 192.695C1333.55 191.508 1333.15 190.188 1333.15 188.735C1333.15 187.268 1333.55 185.941 1334.35 184.755C1335.15 183.568 1336.23 182.641 1337.59 181.975C1338.96 181.295 1340.47 180.955 1342.11 180.955ZM1342.11 194.215C1343.19 194.215 1344.21 194.001 1345.17 193.575C1346.13 193.148 1346.9 192.521 1347.49 191.695C1348.08 190.868 1348.37 189.881 1348.37 188.735C1348.37 187.615 1348.07 186.635 1347.47 185.795C1346.88 184.955 1346.1 184.315 1345.13 183.875C1344.16 183.435 1343.13 183.215 1342.05 183.215C1340.88 183.215 1339.81 183.435 1338.85 183.875C1337.9 184.315 1337.16 184.955 1336.61 185.795C1336.06 186.621 1335.79 187.601 1335.79 188.735C1335.79 189.895 1336.08 190.888 1336.65 191.715C1337.24 192.541 1338.01 193.168 1338.97 193.595C1339.93 194.008 1340.98 194.215 1342.11 194.215ZM1363.03 181.275C1364.27 181.275 1365.36 181.481 1366.31 181.895C1367.27 182.308 1368.01 182.888 1368.53 183.635C1369.06 184.368 1369.33 185.221 1369.33 186.195V186.275C1369.33 187.915 1368.87 189.161 1367.95 190.015C1367.03 190.855 1365.64 191.275 1363.77 191.275H1355.53V196.075H1352.91V181.275H1363.03ZM1362.89 189.055C1363.69 189.055 1364.34 189.008 1364.85 188.915C1365.37 188.821 1365.81 188.581 1366.17 188.195C1366.54 187.795 1366.73 187.175 1366.73 186.335C1366.73 185.455 1366.54 184.808 1366.17 184.395C1365.81 183.968 1365.38 183.708 1364.87 183.615C1364.36 183.521 1363.7 183.475 1362.89 183.475H1362.03C1361.64 183.475 1360.98 183.481 1360.03 183.495C1359.1 183.495 1357.59 183.495 1355.51 183.495L1355.53 189.055H1362.87H1362.89ZM1371.03 183.515V181.275H1387.45L1371.03 183.515ZM1387.45 181.275V183.575H1380.59V196.075H1377.99V183.575H1371.03V181.275H1387.45ZM1411.02 188.695C1411.02 189.815 1410.58 190.835 1409.72 191.755C1408.85 192.661 1407.65 193.381 1406.12 193.915C1404.58 194.435 1402.87 194.695 1400.98 194.695H1400.44V196.075H1397.84V194.695H1397.48H1397.36H1397.34C1395.51 194.695 1393.8 194.428 1392.2 193.895C1390.61 193.361 1389.34 192.641 1388.38 191.735C1387.43 190.815 1386.96 189.801 1386.96 188.695C1386.96 187.575 1387.43 186.561 1388.38 185.655C1389.32 184.748 1390.58 184.028 1392.16 183.495C1393.74 182.961 1395.45 182.688 1397.28 182.675H1397.84V181.275H1400.44V182.675H1400.98C1402.88 182.688 1404.6 182.955 1406.12 183.475C1407.65 183.995 1408.85 184.715 1409.72 185.635C1410.58 186.541 1411.02 187.561 1411.02 188.695ZM1397.84 192.195V185.175H1397.58C1395.62 185.175 1393.84 185.441 1392.26 185.975C1390.68 186.508 1389.9 187.415 1389.9 188.695C1389.9 189.561 1390.3 190.261 1391.1 190.795C1391.91 191.315 1392.9 191.681 1394.06 191.895C1395.23 192.095 1396.4 192.195 1397.58 192.195H1397.84ZM1400.92 192.195C1402.93 192.195 1404.65 191.935 1406.08 191.415C1407.5 190.881 1408.22 189.975 1408.22 188.695C1408.22 187.401 1407.48 186.495 1406.02 185.975C1404.55 185.441 1402.84 185.175 1400.9 185.175H1400.44V192.195H1400.92ZM1421.27 180.955C1422.96 180.955 1424.48 181.295 1425.83 181.975C1427.19 182.641 1428.25 183.568 1429.01 184.755C1429.78 185.928 1430.17 187.255 1430.17 188.735C1430.17 190.201 1429.78 191.521 1429.01 192.695C1428.25 193.868 1427.2 194.795 1425.85 195.475C1424.5 196.141 1422.98 196.475 1421.29 196.475C1419.65 196.475 1418.14 196.141 1416.77 195.475C1415.4 194.795 1414.31 193.868 1413.51 192.695C1412.71 191.508 1412.31 190.188 1412.31 188.735C1412.31 187.268 1412.71 185.941 1413.51 184.755C1414.31 183.568 1415.39 182.641 1416.75 181.975C1418.12 181.295 1419.63 180.955 1421.27 180.955ZM1421.27 194.215C1422.35 194.215 1423.37 194.001 1424.33 193.575C1425.29 193.148 1426.06 192.521 1426.65 191.695C1427.24 190.868 1427.53 189.881 1427.53 188.735C1427.53 187.615 1427.23 186.635 1426.63 185.795C1426.04 184.955 1425.26 184.315 1424.29 183.875C1423.32 183.435 1422.29 183.215 1421.21 183.215C1420.04 183.215 1418.97 183.435 1418.01 183.875C1417.06 184.315 1416.32 184.955 1415.77 185.795C1415.22 186.621 1414.95 187.601 1414.95 188.735C1414.95 189.895 1415.24 190.888 1415.81 191.715C1416.4 192.541 1417.17 193.168 1418.13 193.595C1419.09 194.008 1420.14 194.215 1421.27 194.215ZM1446.3 181.275V196.075H1443.7V183.575H1436.66C1436.39 185.481 1436.08 187.201 1435.72 188.735C1435.37 190.268 1434.89 191.748 1434.28 193.175C1433.86 194.015 1433.33 194.688 1432.68 195.195C1432.02 195.688 1431.29 195.981 1430.48 196.075V193.475C1431.24 193.475 1431.86 192.888 1432.34 191.715C1433.38 188.621 1434.04 185.141 1434.32 181.275H1446.3ZM1451.29 181.275V193.015L1463.09 181.275H1465.69V196.075H1463.09V184.335L1451.29 196.075H1448.69V181.275H1451.29ZM1476.54 180.955C1478.24 180.955 1479.76 181.295 1481.1 181.975C1482.46 182.641 1483.52 183.568 1484.28 184.755C1485.06 185.928 1485.44 187.255 1485.44 188.735C1485.44 190.201 1485.06 191.521 1484.28 192.695C1483.52 193.868 1482.47 194.795 1481.12 195.475C1479.78 196.141 1478.26 196.475 1476.56 196.475C1474.92 196.475 1473.42 196.141 1472.04 195.475C1470.67 194.795 1469.58 193.868 1468.78 192.695C1467.98 191.508 1467.58 190.188 1467.58 188.735C1467.58 187.268 1467.98 185.941 1468.78 184.755C1469.58 183.568 1470.66 182.641 1472.02 181.975C1473.4 181.295 1474.9 180.955 1476.54 180.955ZM1476.54 194.215C1477.62 194.215 1478.64 194.001 1479.6 193.575C1480.56 193.148 1481.34 192.521 1481.92 191.695C1482.51 190.868 1482.8 189.881 1482.8 188.735C1482.8 187.615 1482.5 186.635 1481.9 185.795C1481.32 184.955 1480.54 184.315 1479.56 183.875C1478.59 183.435 1477.56 183.215 1476.48 183.215C1475.31 183.215 1474.24 183.435 1473.28 183.875C1472.34 184.315 1471.59 184.955 1471.04 185.795C1470.5 186.621 1470.22 187.601 1470.22 188.735C1470.22 189.895 1470.51 190.888 1471.08 191.715C1471.67 192.541 1472.44 193.168 1473.4 193.595C1474.36 194.008 1475.41 194.215 1476.54 194.215Z" fill="#D1D1D1"/>
</g>
<defs>
<filter id="filter0_b_108_171" x="-70" y="-69.9253" width="1820" height="388" filterUnits="userSpaceOnUse" color-interpolation-filters="sRGB">
<feFlood flood-opacity="0" result="BackgroundImageFix"/>
<feGaussianBlur in="BackgroundImageFix" stdDeviation="35"/>
<feComposite in2="SourceAlpha" operator="in" result="effect1_backgroundBlur_108_171"/>
<feBlend mode="normal" in="SourceGraphic" in2="effect1_backgroundBlur_108_171" result="shape"/>
</filter>
<linearGradient id="paint0_linear_108_171" x1="280" y1="0.074707" x2="280" y2="248.075" gradientUnits="userSpaceOnUse">
<stop stop-color="#393939"/>
<stop offset="1" stop-color="#393939" stop-opacity="0.47"/>
</linearGradient>
<linearGradient id="paint1_linear_108_171" x1="840" y1="0.074707" x2="840" y2="248.075" gradientUnits="userSpaceOnUse">
<stop stop-color="#393939"/>
<stop offset="1" stop-color="#393939" stop-opacity="0.47"/>
</linearGradient>
<linearGradient id="paint2_linear_108_171" x1="1400" y1="0.074707" x2="1400" y2="248.075" gradientUnits="userSpaceOnUse">
<stop stop-color="#393939"/>
<stop offset="1" stop-color="#393939" stop-opacity="0.47"/>
</linearGradient>
</defs>
</svg>
